file '/Users/njannu/video-hack/Level-1/IVA/code/../input/IVA/31.10.2015/50/archive.iva'
file '/Users/njannu/video-hack/Level-1/IVA/code/../input/IVA/31.10.2015/51/archive.iva'
file '/Users/njannu/video-hack/Level-1/IVA/code/../input/IVA/31.10.2015/52/archive.iva'
file '/Users/njannu/video-hack/Level-1/IVA/code/../input/IVA/31.10.2015/53/archive.iva'
file '/Users/njannu/video-hack/Level-1/IVA/code/../input/IVA/31.10.2015/54/archive.iva'
file '/Users/njannu/video-hack/Level-1/IVA/code/../input/IVA/31.10.2015/55/archive.iva'
file '/Users/njannu/video-hack/Level-1/IVA/code/../input/IVA/31.10.2015/56/archive.iva'
file '/Users/njannu/video-hack/Level-1/IVA/code/../input/IVA/31.10.2015/57/archive.iva'
file '/Users/njannu/video-hack/Level-1/IVA/code/../input/IVA/31.10.2015/58/archive.iva'
file '/Users/njannu/video-hack/Level-1/IVA/code/../input/IVA/31.10.2015/59/archive.iva'
file '/Users/njannu/video-hack/Level-1/IVA/code/../input/IVA/01.11.2015/00/archive.iva'
file '/Users/njannu/video-hack/Level-1/IVA/code/../input/IVA/01.11.2015/01/archive.iva'
file '/Users/njannu/video-hack/Level-1/IVA/code/../input/IVA/01.11.2015/02/archive.iva'
file '/Users/njannu/video-hack/Level-1/IVA/code/../input/IVA/01.11.2015/03/archive.iva'
file '/Users/njannu/video-hack/Level-1/IVA/code/../input/IVA/01.11.2015/04/archive.iva'
file '/Users/njannu/video-hack/Level-1/IVA/code/../input/IVA/01.11.2015/05/archive.iva'
file '/Users/njannu/video-hack/Level-1/IVA/code/../input/IVA/01.11.2015/06/archive.iva'
file '/Users/njannu/video-hack/Level-1/IVA/code/../input/IVA/01.11.2015/07/archive.iva'
file '/Users/njannu/video-hack/Level-1/IVA/code/../input/IVA/01.11.2015/08/archive.iva'
file '/Users/njannu/video-hack/Level-1/IVA/code/../input/IVA/01.11.2015/09/archive.iva'
file '/Users/njannu/video-hack/Level-1/IVA/code/../input/IVA/01.11.2015/10/archive.iva'
